firstname,lastname,birthdate,address
André,Gaulitz,1990-09-29,Utövägen
Therese,From,1987-02-25,Valstavägen
Christoffer,Skilving,1989-05-01,Dukvägen
Morgan,Hammarborg,1989-07-18,Solursgränd
Joakim,Kuurne,1997-05-09,Tullingebergsvagen